Bradford – Exploring the OpenPrescribing Dataset
…
Calculating an overall trend

First let’s check the data quality for all practices and remove the NAs.

saba |>
  drop_na() |>
  summarise(n_reports = n(),
            .by = org_id) |>
  arrange(n_reports) 

# A tibble: 73 × 2
   org_id n_reports
   <chr>      <int>
 1 B83007         4
 2 B83040         7
 3 B83021        22
 4 B83006        22
 5 B82020        23
 6 B82028        23
 7 B83023        24
 8 B83027        24
 9 B83602        26
10 B83061        27
# ℹ 63 more rows
…
