…
#### Calculating an overall trend

First let’s check the data quality for all practices and remove the NAs.

``` r
saba |>
  drop_na() |>
  summarise(n_reports = n(),
            .by = org_id) |>
  arrange(n_reports) 
```

    # A tibble: 76 × 2
       org_id n_reports
       <chr>      <int>
     1 B83638         7
     2 B83013         8
     3 B83011         9
     4 B83007        14
     5 B83040        17
     6 B83021        32
     7 B83006        32
     8 B82020        33
     9 B82028        33
    10 B83023        34
    # ℹ 66 more rows
…
