…
#### Calculating an overall trend

First let’s check the data quality for all practices and remove the NAs.

``` r
saba |>
  drop_na() |>
  summarise(n_reports = n(),
            .by = org_id) |>
  arrange(n_reports) 
```

    # A tibble: 101 × 2
       org_id n_reports
       <chr>      <int>
     1 Y00025         2
     2 Y00683         3
     3 B86095         4
     4 B86047         7
     5 B86682         8
     6 B86077         9
     7 B86633        13
     8 B86031        15
     9 B86023        30
    10 B86074        36
    # ℹ 91 more rows
…
